mastermind_tb.vcd
$date
	Thu Jan  1 21:41:09 2026
$end
$version
	Icarus Verilog
$end
$timescale
	1s
$end
$scope module mastermind_tb $end
$var wire 7 ! SSD3 [6:0] $end
$var wire 7 " SSD2 [6:0] $end
$var wire 7 # SSD1 [6:0] $end
$var wire 7 $ SSD0 [6:0] $end
$var wire 8 % LEDX [7:0] $end
$var parameter 64 & FP $end
$var parameter 32 ' HP $end
$var reg 1 ( clk $end
$var reg 1 ) enterA $end
$var reg 1 * enterB $end
$var reg 3 + letterIn [2:0] $end
$var reg 1 , rst $end
$scope module dut $end
$var wire 1 ( clk $end
$var wire 1 - en_score_update_breaker $end
$var wire 1 . en_score_update_maker $end
$var wire 1 ) enterA $end
$var wire 1 * enterB $end
$var wire 1 / input_pos_enable $end
$var wire 1 0 input_pos_reset $end
$var wire 1 1 last_guess_char $end
$var wire 1 2 last_hidden_char $end
$var wire 3 3 letterIn [2:0] $end
$var wire 1 4 match_all $end
$var wire 1 5 no_tries_left $end
$var wire 1 , rst $end
$var wire 1 6 show_guess $end
$var wire 1 7 show_score $end
$var wire 1 8 timer_enable $end
$var wire 1 9 timer_load $end
$var wire 1 : timer_expired $end
$var wire 1 ; show_tries $end
$var wire 1 < show_hidden $end
$var wire 1 = maker_btn_signal $end
$var wire 1 > game_finished $end
$var wire 1 ? en_maker_btn $end
$var wire 1 @ en_hidden_input $end
$var wire 1 A en_guess_input $end
$var wire 1 B en_breaker_btn $end
$var wire 1 C breaker_btn_signal $end
$var parameter 7 D DISP_A $end
$var parameter 7 E DISP_B $end
$var parameter 7 F DISP_C $end
$var parameter 7 G DISP_E $end
$var parameter 7 H DISP_F $end
$var parameter 7 I DISP_H $end
$var parameter 7 J DISP_L $end
$var parameter 7 K DISP_LINE $end
$var parameter 7 L DISP_OFF $end
$var parameter 7 M DISP_ONE $end
$var parameter 7 N DISP_P $end
$var parameter 7 O DISP_THREE $end
$var parameter 7 P DISP_TWO $end
$var parameter 7 Q DISP_U $end
$var parameter 7 R DISP_ZERO $end
$var parameter 4 S ST_ADD_POINTS $end
$var parameter 4 T ST_CHECK_RESULT $end
$var parameter 4 U ST_DISPLAY_BREAK $end
$var parameter 4 V ST_DISPLAY_MAKER $end
$var parameter 4 W ST_DISPLAY_SCORE $end
$var parameter 4 X ST_DISPLAY_TRIES $end
$var parameter 4 Y ST_FINISH $end
$var parameter 4 Z ST_INPUT_CODE $end
$var parameter 4 [ ST_INPUT_GUESS $end
$var parameter 4 \ ST_REVEAL_CODE $end
$var parameter 4 ] ST_WAIT $end
$var parameter 7 ^ TIME_BLINK $end
$var parameter 7 _ TIME_SHOW $end
$var reg 8 ` LEDX [7:0] $end
$var reg 7 a SSD0 [6:0] $end
$var reg 7 b SSD1 [6:0] $end
$var reg 7 c SSD2 [6:0] $end
$var reg 7 d SSD3 [6:0] $end
$var reg 4 e following_st [3:0] $end
$var reg 3 f guess_char_0 [2:0] $end
$var reg 3 g guess_char_1 [2:0] $end
$var reg 3 h guess_char_2 [2:0] $end
$var reg 3 i guess_char_3 [2:0] $end
$var reg 7 j guess_disp_0 [6:0] $end
$var reg 7 k guess_disp_1 [6:0] $end
$var reg 7 l guess_disp_2 [6:0] $end
$var reg 7 m guess_disp_3 [6:0] $end
$var reg 1 n guess_input_complete $end
$var reg 3 o hidden_char_0 [2:0] $end
$var reg 3 p hidden_char_1 [2:0] $end
$var reg 3 q hidden_char_2 [2:0] $end
$var reg 3 r hidden_char_3 [2:0] $end
$var reg 7 s hidden_disp_0 [6:0] $end
$var reg 7 t hidden_disp_1 [6:0] $end
$var reg 7 u hidden_disp_2 [6:0] $end
$var reg 7 v hidden_disp_3 [6:0] $end
$var reg 1 w hidden_input_complete $end
$var reg 2 x hint_0 [1:0] $end
$var reg 2 y hint_1 [1:0] $end
$var reg 2 z hint_2 [1:0] $end
$var reg 2 { hint_3 [1:0] $end
$var reg 3 | input_position [2:0] $end
$var reg 1 } maker_is_A $end
$var reg 2 ~ points_A [1:0] $end
$var reg 7 !" points_A_disp [6:0] $end
$var reg 2 "" points_B [1:0] $end
$var reg 7 #" points_B_disp [6:0] $end
$var reg 4 $" present_st [3:0] $end
$var reg 7 %" tries_disp [6:0] $end
$var reg 3 &" tries_remaining [2:0] $end
$var reg 1 '" used_h0_temp $end
$var reg 1 (" used_h1_temp $end
$var reg 1 )" used_h2_temp $end
$var reg 1 *" used_h3_temp $end
$var reg 7 +" wait_counter [6:0] $end
$upscope $end
$upscope $end
$enddefinitions $end
$comment Show the parameter values. $end
$dumpall
b11 _
b1 ^
b0 ]
b1000 \
b110 [
b11 Z
b1010 Y
b101 X
b1 W
b10 V
b100 U
b111 T
b1001 S
b1000000 R
b1000001 Q
b100100 P
b110000 O
b1100 N
b1111001 M
b1111111 L
b111111 K
b1000111 J
b1001 I
b1110 H
b110 G
b1000110 F
b11 E
b1000 D
b101 '
b1010 &
$end
#0
$dumpvars
bx +"
x*"
x)"
x("
x'"
bx &"
bx %"
bx $"
bx #"
bx ""
bx !"
bx ~
x}
bx |
bx {
bx z
bx y
bx x
xw
bx v
bx u
bx t
bx s
bx r
bx q
bx p
bx o
xn
bx m
bx l
bx k
bx j
bx i
bx h
bx g
bx f
b0 e
bx d
bx c
bx b
bx a
bx `
0C
xB
xA
x@
x?
x>
0=
x<
x;
x:
x9
x8
x7
x6
x5
x4
b0 3
02
01
00
x/
0.
0-
1,
b0 +
0*
0)
0(
bx %
bx $
bx #
bx "
bx !
$end
#5
08
07
0/
06
b11 $
b11 a
b111111 #
b111111 b
b1000 "
b1000 c
b1111111 !
b1111111 d
b0 %
b0 `
0@
0A
09
0?
0B
0<
0;
b0 $"
0:
b0 +"
0n
0w
1(
#10
04
0>
b1111111 j
b1111111 k
b1111111 l
b1111111 m
b1111111 s
b1111111 t
b1111111 u
b1111111 v
b0 x
b0 y
b0 z
b0 {
0'"
0("
0)"
0*"
05
b110000 %"
b1000000 #"
b1000000 !"
b11 $
b11 a
b1000 "
b1000 c
b0 f
b0 g
b0 h
b0 i
b0 o
b0 p
b0 q
b0 r
b0 |
b11 &"
b0 ""
b0 ~
1}
0(
0,
#15
1(
#20
0(
1,
#25
1(
#30
0(
#35
1(
#40
19
b1 e
0(
1)
#45
18
17
b1000000 $
b1000000 a
b1000000 "
b1000000 c
09
b1 $"
1(
#50
0(
0)
#55
b1000000 $
b1000000 a
b1000000 "
b1000000 c
b1 +"
1(
#60
0(
#65
b1000000 $
b1000000 a
b1000000 "
b1000000 c
b10 +"
1(
#70
0(
#75
b1000000 $
b1000000 a
b1000000 "
b1000000 c
19
b10 e
1:
b11 +"
1(
#80
0(
#85
07
b1000 $
b1000 a
b1100 "
b1100 c
0:
b0 +"
09
b10 $"
1(
#90
0(
#95
b1000 $
b1000 a
b1100 "
b1100 c
b1 +"
1(
#100
0(
#105
b1000 $
b1000 a
b1100 "
b1100 c
b10 +"
1(
#110
0(
#115
10
b1000 $
b1000 a
b1100 "
b1100 c
19
b11 e
1:
b11 +"
1(
#120
0(
#125
08
00
b1111111 #
b1111111 b
b1111111 $
b1111111 a
b1111111 "
b1111111 c
1/
0:
b0 +"
1@
09
1?
b11 $"
1(
#130
0(
#135
1(
#140
0(
#145
1(
#150
1=
0(
1)
b1 +
b1 3
#155
b1000 !
b1000 d
b1111111 #
b1111111 b
b1000 v
b1 |
b1 r
1(
#160
0=
0(
0)
#165
1(
#170
0(
1*
b111 +
b111 3
#175
1(
#180
0(
0*
#185
1(
#190
1=
0(
1)
b10 +
b10 3
#195
b1000110 "
b1000110 c
b1111111 #
b1111111 b
b111111 !
b111111 d
b1000110 u
b10 |
b10 q
1(
#200
0=
0(
0)
#205
1(
#210
1=
0(
1)
b0 +
b0 3
#215
1(
#220
0=
0(
0)
#225
1(
#230
1=
0(
1)
b11 +
b11 3
#235
12
b110 #
b110 b
b111111 "
b111111 c
b111111 !
b111111 d
b110 t
b11 |
b11 p
1(
#240
02
0=
0(
0)
#245
1(
#250
12
1=
0(
1)
b110 +
b110 3
#255
b110 #
b110 b
b111111 "
b111111 c
b111111 !
b111111 d
b1000111 s
19
b100 e
b110 o
1w
1(
#260
02
0=
19
b100 e
0(
0)
#265
18
b11 $
b11 a
b111111 #
b111111 b
b1100 "
b1100 c
b1111111 !
b1111111 d
0/
0w
0@
09
0?
b100 $"
1(
#270
0(
b0 +
b0 3
#275
b11 $
b11 a
b1100 "
b1100 c
b1 +"
1(
#280
0(
#285
b11 $
b11 a
b1100 "
b1100 c
b10 +"
1(
#290
0(
#295
b11 $
b11 a
b1100 "
b1100 c
19
b101 e
1:
b11 +"
1(
#300
0(
#305
b110000 $
b110000 a
b1000111 "
b1000111 c
0:
b0 +"
09
1;
b101 $"
1(
#310
0(
#315
b110000 $
b110000 a
b1000111 "
b1000111 c
b1 +"
1(
#320
0(
#325
b110000 $
b110000 a
b1000111 "
b1000111 c
b10 +"
1(
#330
0(
#335
10
b110000 $
b110000 a
b1000111 "
b1000111 c
19
b110 e
1:
b11 +"
1(
#340
0(
#345
08
00
b1111111 #
b1111111 b
b1111111 $
b1111111 a
b1111111 "
b1111111 c
1/
16
b0 |
0:
b0 +"
1A
09
1B
0;
b110 $"
1(
#350
0(
#355
1(
#360
0(
#365
1(
#370
1C
0(
1*
b1 +
b1 3
#375
b1000 !
b1000 d
b1111111 #
b1111111 b
b1000 m
1*"
b11 {
b1 |
b1 i
1(
#380
0C
0(
0*
#385
1(
#390
1C
0(
1*
b10 +
b10 3
#395
b1000110 "
b1000110 c
b1111111 #
b1111111 b
b1000 !
b1000 d
b1000110 l
1)"
b11 z
b11 {
1*"
b10 |
b10 h
1(
#400
0C
0(
0*
#405
1(
#410
1C
0(
1*
b11 +
b11 3
#415
11
b110 #
b110 b
b1000110 "
b1000110 c
b1000 !
b1000 d
b110 k
1("
b11 y
b11 z
b11 {
1)"
1*"
b11 |
b11 g
1(
#420
01
0C
0(
0*
#425
1(
#430
11
1C
0(
1*
b110 +
b110 3
#435
14
b1000111 $
b1000111 a
b110 #
b110 b
b1000110 "
b1000110 c
b1000 !
b1000 d
b1000111 j
1'"
b11 x
b11 y
b11 z
b11 {
1("
1)"
1*"
19
b111 e
b110 f
1n
1(
#440
01
0C
19
b111 e
0(
0*
#445
1-
b11111111 %
b11111111 `
b1000111 $
b1000111 a
b110 #
b110 b
b1000110 "
b1000110 c
b1000 !
b1000 d
b1001 e
0/
0n
0A
19
0B
b111 $"
1(
#450
0(
b0 +
b0 3
#455
18
17
b1111001 $
b1111001 a
b111111 #
b111111 b
b1000000 "
b1000000 c
b1111111 !
b1111111 d
b0 %
b0 `
0-
06
b1111001 #"
09
b1001 $"
b1 ""
1(
#460
0(
#465
b1111001 $
b1111001 a
b1000000 "
b1000000 c
b1 +"
1(
#470
0(
#475
b1111001 $
b1111001 a
b1000000 "
b1000000 c
b10 +"
1(
#480
0(
#485
b1111001 $
b1111001 a
b1000000 "
b1000000 c
19
b1 e
1:
b11 +"
1(
#490
0(
#495
18
04
b1111111 j
b1111111 k
b1111111 l
b1111111 m
b1111111 s
b1111111 t
b1111111 u
b1111111 v
b0 x
b0 y
b0 z
b0 {
0'"
0("
0)"
0*"
b1111001 $
b1111001 a
b1000000 "
b1000000 c
09
b1 $"
0:
b0 +"
b0 f
b0 g
b0 h
b0 i
b0 o
b0 p
b0 q
b0 r
b0 |
0}
1(
#500
0(
#505
b1111001 $
b1111001 a
b1000000 "
b1000000 c
b1 +"
1(
#510
0(
#515
b1111001 $
b1111001 a
b1000000 "
b1000000 c
b10 +"
1(
#520
0(
#525
b1111001 $
b1111001 a
b1000000 "
b1000000 c
19
b10 e
1:
b11 +"
1(
#530
0(
#535
07
b11 $
b11 a
b1100 "
b1100 c
09
b10 $"
0:
b0 +"
1(
#540
0(
#545
b11 $
b11 a
b1100 "
b1100 c
b1 +"
1(
#550
0(
#555
b11 $
b11 a
b1100 "
b1100 c
b10 +"
1(
#560
0(
#565
10
b11 $
b11 a
b1100 "
b1100 c
19
b11 e
1:
b11 +"
1(
#570
0(
#575
08
00
1/
b1111111 #
b1111111 b
b1111111 $
b1111111 a
b1111111 "
b1111111 c
1@
09
1?
b11 $"
0:
b0 +"
1(
#580
0(
#585
1(
#590
0(
#595
1(
#600
0(
#605
1(
#610
0(
#615
1(
#620
0(
#625
1(
#630
0(
#635
1(
#640
0(
#645
1(
#650
0(
#655
1(
#660
0(
#665
1(
#670
1=
0(
1*
b100 +
b100 3
#675
b1110 !
b1110 d
b1111111 #
b1111111 b
b1110 v
b1 |
b100 r
1(
#680
0=
0(
0*
#685
1(
#690
0(
1)
b10 +
b10 3
#695
1(
#700
0(
0)
#705
1(
#710
1=
0(
1*
b101 +
b101 3
#715
b1001 "
b1001 c
b1111111 #
b1111111 b
b111111 !
b111111 d
b1001 u
b10 |
b101 q
1(
#720
0=
0(
0*
#725
1(
#730
1=
0(
1*
b0 +
b0 3
#735
1(
#740
0=
0(
0*
#745
1(
#750
1=
0(
1*
b111 +
b111 3
#755
12
b1000001 #
b1000001 b
b111111 "
b111111 c
b111111 !
b111111 d
b1000001 t
b11 |
b111 p
1(
#760
02
0=
0(
0*
#765
1(
#770
12
1=
0(
1*
b1 +
b1 3
#775
b1000001 #
b1000001 b
b111111 "
b111111 c
b111111 !
b111111 d
b1000 s
19
b100 e
b1 o
1w
1(
#780
02
0=
19
b100 e
0(
0*
#785
18
b1000 $
b1000 a
b111111 #
b111111 b
b1100 "
b1100 c
b1111111 !
b1111111 d
0/
0w
0@
09
0?
b100 $"
1(
#790
0(
b0 +
b0 3
#795
b1000 $
b1000 a
b1100 "
b1100 c
b1 +"
1(
#800
0(
#805
b1000 $
b1000 a
b1100 "
b1100 c
b10 +"
1(
#810
0(
#815
b1000 $
b1000 a
b1100 "
b1100 c
19
b101 e
1:
b11 +"
1(
#820
0(
#825
b110000 $
b110000 a
b1000111 "
b1000111 c
0:
b0 +"
09
1;
b101 $"
1(
#830
0(
#835
b110000 $
b110000 a
b1000111 "
b1000111 c
b1 +"
1(
#840
0(
#845
b110000 $
b110000 a
b1000111 "
b1000111 c
b10 +"
1(
#850
0(
#855
10
b110000 $
b110000 a
b1000111 "
b1000111 c
19
b110 e
1:
b11 +"
1(
#860
0(
#865
08
00
b1111111 #
b1111111 b
b1111111 $
b1111111 a
b1111111 "
b1111111 c
1/
16
b0 |
0:
b0 +"
1A
09
1B
0;
b110 $"
1(
#870
0(
#875
1(
#880
0(
#885
1(
#890
0(
#895
1(
#900
0(
#905
1(
#910
1C
0(
1)
b10 +
b10 3
#915
b1000110 !
b1000110 d
b1111111 #
b1111111 b
b1000110 m
b1 |
b10 i
1(
#920
0C
0(
0)
#925
1(
#930
1C
0(
1)
#935
b1000110 "
b1000110 c
b1111111 #
b1111111 b
b1000110 !
b1000110 d
b1000110 l
b10 |
b10 h
1(
#940
0C
0(
0)
#945
1(
#950
1C
0(
1)
#955
11
b1000110 #
b1000110 b
b1000110 "
b1000110 c
b1000110 !
b1000110 d
b1000110 k
b11 |
b10 g
1(
#960
01
0C
0(
0)
#965
1(
#970
11
1C
0(
1)
#975
b1000110 $
b1000110 a
b1000110 #
b1000110 b
b1000110 "
b1000110 c
b1000110 !
b1000110 d
b1000110 j
19
b111 e
b10 f
1n
1(
#980
01
0C
19
b111 e
0(
0)
#985
b1000110 $
b1000110 a
b1000110 #
b1000110 b
b1000110 "
b1000110 c
b1000110 !
b1000110 d
b101 e
0/
0n
0A
19
0B
b111 $"
1(
#990
0(
b0 +
b0 3
#995
18
b100100 $
b100100 a
b111111 #
b111111 b
b1000111 "
b1000111 c
b1111111 !
b1111111 d
06
b100100 %"
09
1;
b101 $"
b10 &"
1(
#1000
0(
#1005
b100100 $
b100100 a
b1000111 "
b1000111 c
b1 +"
1(
#1010
0(
#1015
b100100 $
b100100 a
b1000111 "
b1000111 c
b10 +"
1(
#1020
0(
#1025
10
b100100 $
b100100 a
b1000111 "
b1000111 c
19
b110 e
1:
b11 +"
1(
#1030
0(
#1035
08
00
1/
16
b1111111 j
b1111111 k
b1111111 l
b1111111 m
b1111111 #
b1111111 b
b1111111 $
b1111111 a
b1111111 "
b1111111 c
1A
09
1B
0;
b110 $"
0:
b0 +"
b0 f
b0 g
b0 h
b0 i
b0 |
1(
#1040
0(
#1045
1(
#1050
0(
#1055
1(
#1060
0(
#1065
1(
#1070
1C
0(
1)
b11 +
b11 3
#1075
b110 !
b110 d
b1111111 #
b1111111 b
b110 m
b1 |
b11 i
1(
#1080
0C
0(
0)
#1085
1(
#1090
1C
0(
1)
#1095
b110 "
b110 c
b1111111 #
b1111111 b
b110 !
b110 d
b110 l
b10 |
b11 h
1(
#1100
0C
0(
0)
#1105
1(
#1110
1C
0(
1)
#1115
11
b110 #
b110 b
b110 "
b110 c
b110 !
b110 d
b110 k
b11 |
b11 g
1(
#1120
01
0C
0(
0)
#1125
1(
#1130
11
1C
0(
1)
#1135
b110 $
b110 a
b110 #
b110 b
b110 "
b110 c
b110 !
b110 d
b110 j
19
b111 e
b11 f
1n
1(
#1140
01
0C
19
b111 e
0(
0)
#1145
b110 $
b110 a
b110 #
b110 b
b110 "
b110 c
b110 !
b110 d
b101 e
0/
0n
0A
19
0B
b111 $"
1(
#1150
0(
b0 +
b0 3
#1155
18
b1111001 $
b1111001 a
b111111 #
b111111 b
b1000111 "
b1000111 c
b1111111 !
b1111111 d
06
b1111001 %"
15
09
1;
b101 $"
b1 &"
1(
#1160
0(
#1165
b1111001 $
b1111001 a
b1000111 "
b1000111 c
b1 +"
1(
#1170
0(
#1175
b1111001 $
b1111001 a
b1000111 "
b1000111 c
b10 +"
1(
#1180
0(
#1185
10
b1111001 $
b1111001 a
b1000111 "
b1000111 c
19
b110 e
1:
b11 +"
1(
#1190
0(
#1195
08
00
1/
16
b1111111 j
b1111111 k
b1111111 l
b1111111 m
b1111111 #
b1111111 b
b1111111 $
b1111111 a
b1111111 "
b1111111 c
1A
09
1B
0;
b110 $"
0:
b0 +"
b0 f
b0 g
b0 h
b0 i
b0 |
1(
#1200
0(
#1205
1(
#1210
0(
#1215
1(
#1220
0(
#1225
1(
#1230
1C
0(
1)
b110 +
b110 3
#1235
b1000111 !
b1000111 d
b1111111 #
b1111111 b
b1000111 m
b1 |
b110 i
1(
#1240
0C
0(
0)
#1245
1(
#1250
1C
0(
1)
#1255
b1000111 "
b1000111 c
b1111111 #
b1111111 b
b1000111 !
b1000111 d
b1000111 l
b10 |
b110 h
1(
#1260
0C
0(
0)
#1265
1(
#1270
1C
0(
1)
#1275
11
b1000111 #
b1000111 b
b1000111 "
b1000111 c
b1000111 !
b1000111 d
b1000111 k
b11 |
b110 g
1(
#1280
01
0C
0(
0)
#1285
1(
#1290
11
1C
0(
1)
#1295
b1000111 $
b1000111 a
b1000111 #
b1000111 b
b1000111 "
b1000111 c
b1000111 !
b1000111 d
b1000111 j
19
b111 e
b110 f
1n
1(
#1300
01
0C
19
b111 e
0(
0)
#1305
b1000111 $
b1000111 a
b1000111 #
b1000111 b
b1000111 "
b1000111 c
b1000111 !
b1000111 d
b1000 e
0/
0n
0A
19
0B
b111 $"
1(
#1310
0(
b0 +
b0 3
#1315
18
b1000 $
b1000 a
b1000001 #
b1000001 b
b1001 "
b1001 c
b1110 !
b1110 d
06
09
1<
b1000 $"
1(
#1320
0(
#1325
b1000 $
b1000 a
b1000001 #
b1000001 b
b1001 "
b1001 c
b1110 !
b1110 d
b1 +"
1(
#1330
0(
#1335
b1000 $
b1000 a
b1000001 #
b1000001 b
b1001 "
b1001 c
b1110 !
b1110 d
b10 +"
1(
#1340
0(
#1345
1.
b1000 $
b1000 a
b1000001 #
b1000001 b
b1001 "
b1001 c
b1110 !
b1110 d
19
b1001 e
1:
b11 +"
1(
#1350
0(
#1355
17
1>
0.
b100100 $
b100100 a
b111111 #
b111111 b
b1000000 "
b1000000 c
b1111111 !
b1111111 d
b100100 #"
09
0<
b1001 $"
0:
b0 +"
b10 ""
1(
#1360
0(
#1365
b100100 $
b100100 a
b1000000 "
b1000000 c
b1 +"
1(
#1370
0(
#1375
b100100 $
b100100 a
b1000000 "
b1000000 c
b10 +"
1(
#1380
0(
#1385
b100100 $
b100100 a
b1000000 "
b1000000 c
19
b1010 e
1:
b11 +"
1(
#1390
0(
#1395
b11111111 %
b11111111 `
b100100 $
b100100 a
b1000000 "
b1000000 c
09
b1010 $"
0:
b0 +"
1(
#1400
0(
#1405
b100100 $
b100100 a
b1000000 "
b1000000 c
b0 %
b0 `
b1 +"
1(
#1410
0(
#1415
b100100 $
b100100 a
b1000000 "
b1000000 c
b10 +"
1(
#1420
0(
#1425
b100100 $
b100100 a
b1000000 "
b1000000 c
1:
b11 +"
1(
#1430
0(
#1435
b11111111 %
b11111111 `
b100100 $
b100100 a
b1000000 "
b1000000 c
0:
b0 +"
1(
#1440
0(
#1445
b100100 $
b100100 a
b1000000 "
b1000000 c
b0 %
b0 `
b1 +"
1(
#1450
0(
#1455
b100100 $
b100100 a
b1000000 "
b1000000 c
b10 +"
1(
#1460
0(
#1465
b100100 $
b100100 a
b1000000 "
b1000000 c
1:
b11 +"
1(
#1470
0(
#1475
b11111111 %
b11111111 `
b100100 $
b100100 a
b1000000 "
b1000000 c
0:
b0 +"
1(
#1480
0(
#1485
b100100 $
b100100 a
b1000000 "
b1000000 c
b0 %
b0 `
b1 +"
1(
#1490
0(
#1495
b100100 $
b100100 a
b1000000 "
b1000000 c
b10 +"
1(
#1500
0(
#1505
b100100 $
b100100 a
b1000000 "
b1000000 c
1:
b11 +"
1(
#1510
19
b0 e
0(
1)
#1515
0>
08
07
b1 e
b11 $
b11 a
b1000 "
b1000 c
05
b110000 %"
b1000000 #"
19
b0 $"
0:
b0 +"
b0 |
b11 &"
b0 ""
1(
#1520
09
b0 e
0(
0)
